{
  "project_info": {
    "project_number": "180951841879",
    "firebase_url": "https://meet-strangers-android-test.firebaseio.com",
    "project_id": "meet-strangers-android-test",
    "storage_bucket": "meet-strangers-android-test.appspot.com"
  },
  "client": [
    {
      "client_info": {
        "mobilesdk_app_id": "1:180951841879:android:ceb5a43a8eb0a1de",
        "android_client_info": {
          "package_name": "com.example.bhanu.meetstrangers"
        }
      },
      "oauth_client": [
        {
          "client_id": "180951841879-kon6d25520nq2po4aj8afs6r2lib632e.apps.googleusercontent.com",
          "client_type": 1,
          "android_info": {
            "package_name": "com.example.bhanu.meetstrangers",
            "certificate_hash": "1a36f13b622518aa889662c8cb7f4e0e24f0d467"
          }
        },
        {
          "client_id": "180951841879-cogn6kptcbkrb5hrmna795ql64uauo7l.apps.googleusercontent.com",
          "client_type": 3
        }
      ],
      "api_key": [
        {
          "current_key": "AIzaSyAmSkga2fxmcAIPONERCPtGq921lZmeIXU"
        }
      ],
      "services": {
        "analytics_service": {
          "status": 1
        },
        "appinvite_service": {
          "status": 2,
          "other_platform_oauth_client": [
            {
              "client_id": "180951841879-cogn6kptcbkrb5hrmna795ql64uauo7l.apps.googleusercontent.com",
              "client_type": 3
            }
          ]
        },
        "ads_service": {
          "status": 2
        }
      }
    }
  ],
  "configuration_version": "1"
}